simulation/qsim/tx_uart.msim.vcd
$comment
	File created using the following command:
		vcd file tx_uart.msim.vcd -direction
$end
$date
	Sun Nov 26 22:02:07 2023
$end
$version
	ModelSim Version 10.1d
$end
$timescale
	1ps
$end
$scope module tx_uart_vlg_vec_tst $end
$var reg 1 ! clk $end
$var reg 1 " reset $end
$var reg 32 # tx_data [31:0] $end
$var reg 1 $ tx_datavalid $end
$var wire 1 % tx_line $end
$var wire 1 & sampler $end
$scope module i1 $end
$var wire 1 ' gnd $end
$var wire 1 ( vcc $end
$var wire 1 ) unknown $end
$var tri1 1 * devclrn $end
$var tri1 1 + devpor $end
$var tri1 1 , devoe $end
$var wire 1 - clk_count[1]~11_combout $end
$var wire 1 . clk_count[7]~23_combout $end
$var wire 1 / state.tx_stop_bits~q $end
$var wire 1 0 Mux0~0_combout $end
$var wire 1 1 Mux0~1_combout $end
$var wire 1 2 state.tx_stop_bits~0_combout $end
$var wire 1 3 state.tx_stop_bits~1_combout $end
$var wire 1 4 state.tx_stop_bits~2_combout $end
$var wire 1 5 data_index~0_combout $end
$var wire 1 6 reset~input_o $end
$var wire 1 7 tx_data[22]~input_o $end
$var wire 1 8 tx_data[26]~input_o $end
$var wire 1 9 tx_data[18]~input_o $end
$var wire 1 : tx_data[30]~input_o $end
$var wire 1 ; tx_data[10]~input_o $end
$var wire 1 < tx_data[9]~input_o $end
$var wire 1 = tx_data[5]~input_o $end
$var wire 1 > tx_data[6]~input_o $end
$var wire 1 ? tx_data[2]~input_o $end
$var wire 1 @ tx_data[1]~input_o $end
$var wire 1 A tx_data[13]~input_o $end
$var wire 1 B tx_data[14]~input_o $end
$var wire 1 C data[26]~feeder_combout $end
$var wire 1 D data[30]~feeder_combout $end
$var wire 1 E data[10]~feeder_combout $end
$var wire 1 F data[9]~feeder_combout $end
$var wire 1 G data[5]~feeder_combout $end
$var wire 1 H data[2]~feeder_combout $end
$var wire 1 I data[1]~feeder_combout $end
$var wire 1 J tx_line~output_o $end
$var wire 1 K clk~input_o $end
$var wire 1 L clk~inputclkctrl_outclk $end
$var wire 1 M clk_count[0]~10 $end
$var wire 1 N clk_count[1]~12 $end
$var wire 1 O clk_count[2]~13_combout $end
$var wire 1 P ~GND~combout $end
$var wire 1 Q tx_datavalid~input_o $end
$var wire 1 R Selector15~0_combout $end
$var wire 1 S state.tx_idle~q $end
$var wire 1 T clk_count[2]~14 $end
$var wire 1 U clk_count[3]~16 $end
$var wire 1 V clk_count[4]~17_combout $end
$var wire 1 W clk_count[3]~15_combout $end
$var wire 1 X clk_count[0]~9_combout $end
$var wire 1 Y LessThan1~1_combout $end
$var wire 1 Z clk_count[4]~18 $end
$var wire 1 [ clk_count[5]~19_combout $end
$var wire 1 \ clk_count[5]~20 $end
$var wire 1 ] clk_count[6]~21_combout $end
$var wire 1 ^ clk_count[6]~22 $end
$var wire 1 _ clk_count[7]~24 $end
$var wire 1 ` clk_count[8]~25_combout $end
$var wire 1 a LessThan1~0_combout $end
$var wire 1 b LessThan1~2_combout $end
$var wire 1 c Selector16~0_combout $end
$var wire 1 d state.tx_start~q $end
$var wire 1 e Selector17~0_combout $end
$var wire 1 f state.tx_databits~q $end
$var wire 1 g Add1~0_combout $end
$var wire 1 h Selector14~0_combout $end
$var wire 1 i Add1~1 $end
$var wire 1 j Add1~2_combout $end
$var wire 1 k Selector13~0_combout $end
$var wire 1 l Add1~3 $end
$var wire 1 m Add1~4_combout $end
$var wire 1 n Selector12~0_combout $end
$var wire 1 o Add1~5 $end
$var wire 1 p Add1~6_combout $end
$var wire 1 q Selector11~0_combout $end
$var wire 1 r Add1~7 $end
$var wire 1 s Add1~8_combout $end
$var wire 1 t Selector10~0_combout $end
$var wire 1 u tx_data[27]~input_o $end
$var wire 1 v data[27]~feeder_combout $end
$var wire 1 w data[4]~0_combout $end
$var wire 1 x tx_data[31]~input_o $end
$var wire 1 y tx_data[23]~input_o $end
$var wire 1 z tx_data[19]~input_o $end
$var wire 1 { Mux0~7_combout $end
$var wire 1 | Mux0~8_combout $end
$var wire 1 } tx_data[25]~input_o $end
$var wire 1 ~ data[25]~feeder_combout $end
$var wire 1 !! tx_data[29]~input_o $end
$var wire 1 "! tx_data[21]~input_o $end
$var wire 1 #! tx_data[17]~input_o $end
$var wire 1 $! Mux0~2_combout $end
$var wire 1 %! Mux0~3_combout $end
$var wire 1 &! tx_data[20]~input_o $end
$var wire 1 '! tx_data[28]~input_o $end
$var wire 1 (! tx_data[24]~input_o $end
$var wire 1 )! data[24]~feeder_combout $end
$var wire 1 *! tx_data[16]~input_o $end
$var wire 1 +! Mux0~4_combout $end
$var wire 1 ,! Mux0~5_combout $end
$var wire 1 -! Mux0~6_combout $end
$var wire 1 .! Mux0~9_combout $end
$var wire 1 /! tx_data[11]~input_o $end
$var wire 1 0! tx_data[8]~input_o $end
$var wire 1 1! Mux0~10_combout $end
$var wire 1 2! Mux0~11_combout $end
$var wire 1 3! tx_data[15]~input_o $end
$var wire 1 4! tx_data[12]~input_o $end
$var wire 1 5! Mux0~17_combout $end
$var wire 1 6! Mux0~18_combout $end
$var wire 1 7! tx_data[7]~input_o $end
$var wire 1 8! tx_data[4]~input_o $end
$var wire 1 9! Mux0~12_combout $end
$var wire 1 :! Mux0~13_combout $end
$var wire 1 ;! tx_data[3]~input_o $end
$var wire 1 <! tx_data[0]~input_o $end
$var wire 1 =! Mux0~14_combout $end
$var wire 1 >! Mux0~15_combout $end
$var wire 1 ?! Mux0~16_combout $end
$var wire 1 @! Mux0~19_combout $end
$var wire 1 A! Selector0~0_combout $end
$var wire 1 B! Selector0~1_combout $end
$var wire 1 C! tx_line~reg0_q $end
$var wire 1 D! data_index [4] $end
$var wire 1 E! data_index [3] $end
$var wire 1 F! data_index [2] $end
$var wire 1 G! data_index [1] $end
$var wire 1 H! data_index [0] $end
$var wire 1 I! data [31] $end
$var wire 1 J! data [30] $end
$var wire 1 K! data [29] $end
$var wire 1 L! data [28] $end
$var wire 1 M! data [27] $end
$var wire 1 N! data [26] $end
$var wire 1 O! data [25] $end
$var wire 1 P! data [24] $end
$var wire 1 Q! data [23] $end
$var wire 1 R! data [22] $end
$var wire 1 S! data [21] $end
$var wire 1 T! data [20] $end
$var wire 1 U! data [19] $end
$var wire 1 V! data [18] $end
$var wire 1 W! data [17] $end
$var wire 1 X! data [16] $end
$var wire 1 Y! data [15] $end
$var wire 1 Z! data [14] $end
$var wire 1 [! data [13] $end
$var wire 1 \! data [12] $end
$var wire 1 ]! data [11] $end
$var wire 1 ^! data [10] $end
$var wire 1 _! data [9] $end
$var wire 1 `! data [8] $end
$var wire 1 a! data [7] $end
$var wire 1 b! data [6] $end
$var wire 1 c! data [5] $end
$var wire 1 d! data [4] $end
$var wire 1 e! data [3] $end
$var wire 1 f! data [2] $end
$var wire 1 g! data [1] $end
$var wire 1 h! data [0] $end
$var wire 1 i! clk_count [8] $end
$var wire 1 j! clk_count [7] $end
$var wire 1 k! clk_count [6] $end
$var wire 1 l! clk_count [5] $end
$var wire 1 m! clk_count [4] $end
$var wire 1 n! clk_count [3] $end
$var wire 1 o! clk_count [2] $end
$var wire 1 p! clk_count [1] $end
$var wire 1 q! clk_count [0] $end
$upscope $end
$upscope $end
$enddefinitions $end
#0
$dumpvars
0!
0"
b10101010101010101010101010101010 #
1$
0=!
0>!
0?!
0@!
0A!
1B!
0C!
0H!
0G!
0F!
0E!
0D!
0h!
0g!
0f!
0e!
0d!
0c!
0b!
0a!
0`!
0_!
0^!
0]!
0\!
0[!
0Z!
0Y!
0X!
0W!
0V!
0U!
0T!
0S!
0R!
0Q!
0P!
0O!
0N!
0M!
0L!
0K!
0J!
0I!
0q!
0p!
0o!
0n!
0m!
0l!
0k!
0j!
0i!
0%
x&
0'
1(
x)
1*
1+
1,
0-
0.
0/
00
01
02
03
04
05
06
07
08
09
0:
0;
1<
1=
0>
0?
1@
1A
0B
0C
0D
0E
1F
1G
0H
1I
0J
0K
0L
0M
1N
0O
0P
1Q
1R
0S
0T
1U
0V
0W
1X
1Y
0Z
0[
1\
0]
0^
1_
0`
1a
1b
1c
0d
0e
0f
0g
0h
0i
0j
0k
1l
0m
0n
0o
0p
0q
1r
0s
0t
1u
1v
1w
1x
1y
1z
0{
0|
1}
1~
1!!
1"!
1#!
0$!
0%!
0&!
0'!
0(!
0)!
0*!
0+!
0,!
0-!
0.!
1/!
00!
01!
02!
13!
04!
05!
06!
17!
08!
09!
0:!
1;!
0<!
$end
#10000
1!
1K
1L
0&
#20000
0!
0K
0L
1&
1_!
1c!
1g!
1[!
1S
1d
1M!
1I!
1Q!
1U!
1O!
1K!
1S!
1W!
1]!
1Y!
1a!
1e!
1C!
0B!
0w
15
1{
1$!
1J
1%
1|
1%!
#30000
1!
1K
1L
0&
#40000
0!
0K
0L
1&
1q!
0C!
1M
0X
0J
0%
1-
#50000
1!
1K
1L
0&
#60000
0!
0K
0L
1&
1p!
0q!
0N
0-
0M
1X
1O
1N
1-
0O
#70000
1!
1K
1L
0&
#80000
0!
0K
0L
1&
1q!
0Y
1M
0X
0N
0-
1O
#90000
1!
1K
1L
0&
#100000
0!
0K
0L
1&
0p!
1o!
0q!
1N
1-
1T
0O
0M
1X
0T
1O
1W
0-
0W
#110000
1!
1K
1L
0&
#120000
0!
0K
0L
1&
1q!
1M
0X
1-
#130000
1!
1K
1L
0&
#140000
0!
0K
0L
1&
1p!
0q!
0N
0-
0M
1X
1T
0O
1N
1-
1W
0T
1O
0W
#150000
1!
1K
1L
0&
#160000
0!
0K
0L
1&
1q!
1M
0X
0N
0-
1T
0O
1W
#170000
1!
1K
1L
0&
#180000
0!
0K
0L
1&
0p!
0o!
1n!
0q!
1N
1-
0T
1O
0U
0W
0M
1X
0O
1U
1W
1V
0-
0V
#190000
1!
1K
1L
0&
#200000
0!
0K
0L
1&
1q!
1M
0X
1-
#210000
1!
1K
1L
0&
#220000
0!
0K
0L
1&
1p!
0q!
0N
0-
0M
1X
1O
1N
1-
0O
#230000
1!
1K
1L
0&
#240000
0!
0K
0L
1&
1q!
1M
0X
0N
0-
1O
#250000
1!
1K
1L
0&
#260000
0!
0K
0L
1&
0p!
1o!
0q!
1N
1-
1T
0O
0M
1X
0T
1O
0U
0W
0-
1U
1W
1V
0V
#270000
1!
1K
1L
0&
#280000
0!
0K
0L
1&
1q!
1M
0X
1-
#290000
1!
1K
1L
0&
#300000
0!
0K
0L
1&
1p!
0q!
0N
0-
0M
1X
1T
0O
1N
1-
0U
0W
0T
1O
1V
1U
1W
0V
#310000
1!
1K
1L
0&
#320000
0!
0K
0L
1&
1q!
1M
0X
0N
0-
1T
0O
0U
0W
1V
#330000
1!
1K
1L
0&
#340000
0!
0K
0L
1&
0p!
0o!
1m!
0n!
0q!
1Y
1N
1-
0T
1O
1Z
0V
1U
1W
0M
1X
0O
0W
1[
0Z
1V
0-
0[
#350000
1!
1K
1L
0&
#360000
0!
0K
0L
1&
1q!
1M
0X
1-
#370000
1!
1K
1L
0&
#380000
0!
0K
0L
1&
1p!
0q!
0N
0-
0M
1X
1O
1N
1-
0O
#390000
1!
1K
1L
0&
#400000
0!
0K
0L
1&
1q!
0Y
1M
0X
0N
0-
1O
#410000
1!
1K
1L
0&
#420000
0!
0K
0L
1&
0p!
1o!
0q!
1N
1-
1T
0O
0M
1X
0T
1O
1W
0-
0W
#430000
1!
1K
1L
0&
#440000
0!
0K
0L
1&
1q!
1M
0X
1-
#450000
1!
1K
1L
0&
#460000
0!
0K
0L
1&
1p!
0q!
0N
0-
0M
1X
1T
0O
1N
1-
1W
0T
1O
0W
#470000
1!
1K
1L
0&
#480000
0!
0K
0L
1&
1q!
1M
0X
0N
0-
1T
0O
1W
#490000
1!
1K
1L
0&
#500000
0!
0K
0L
1&
0p!
0o!
1n!
0q!
1N
1-
0T
1O
0U
0W
0M
1X
0O
1U
1W
1Z
0V
0-
0Z
1V
1[
0[
#510000
1!
1K
1L
0&
#520000
0!
0K
0L
1&
1q!
1M
0X
1-
#530000
1!
1K
1L
0&
#540000
0!
0K
0L
1&
1p!
0q!
0N
0-
0M
1X
1O
1N
1-
0O
#550000
1!
1K
1L
0&
#560000
0!
0K
0L
1&
1q!
1M
0X
0N
0-
1O
#570000
1!
1K
1L
0&
#580000
0!
0K
0L
1&
0p!
1o!
0q!
1N
1-
1T
0O
0M
1X
0T
1O
0U
0W
0-
1U
1W
1Z
0V
0Z
1V
1[
0[
#590000
1!
1K
1L
0&
#600000
0!
0K
0L
1&
1q!
1M
0X
1-
#610000
1!
1K
1L
0&
#620000
0!
0K
0L
1&
1p!
0q!
0N
0-
0M
1X
1T
0O
1N
1-
0U
0W
0T
1O
1Z
0V
1U
1W
1[
0Z
1V
0[
#630000
1!
1K
1L
0&
#640000
0!
0K
0L
1&
1q!
1M
0X
0N
0-
1T
0O
0U
0W
1Z
0V
1[
#650000
1!
1K
1L
0&
#660000
0!
0K
0L
1&
0p!
0o!
0m!
0n!
0q!
1l!
1Y
1N
1-
0T
1O
0Z
1V
1U
1W
0M
1X
0\
0[
0O
0W
1\
1[
0V
0-
1]
0]
#670000
1!
1K
1L
0&
#680000
0!
0K
0L
1&
1q!
1M
0X
1-
#690000
1!
1K
1L
0&
#700000
0!
0K
0L
1&
1p!
0q!
0N
0-
0M
1X
1O
1N
1-
0O
#710000
1!
1K
1L
0&
#720000
0!
0K
0L
1&
1q!
0Y
1M
0X
0N
0-
1O
#730000
1!
1K
1L
0&
#740000
0!
0K
0L
1&
0p!
1o!
0q!
1N
1-
1T
0O
0M
1X
0T
1O
1W
0-
0W
#750000
1!
1K
1L
0&
#760000
0!
0K
0L
1&
1q!
1M
0X
1-
#770000
1!
1K
1L
0&
#780000
0!
0K
0L
1&
1p!
0q!
0N
0-
0M
1X
1T
0O
1N
1-
1W
0T
1O
0W
#790000
1!
1K
1L
0&
#800000
0!
0K
0L
1&
1q!
1M
0X
0N
0-
1T
0O
1W
#810000
1!
1K
1L
0&
#820000
0!
0K
0L
1&
0p!
0o!
1n!
0q!
1N
1-
0T
1O
0U
0W
0M
1X
0O
1U
1W
1V
0-
0V
#830000
1!
1K
1L
0&
#840000
0!
0K
0L
1&
1q!
1M
0X
1-
#850000
1!
1K
1L
0&
#860000
0!
0K
0L
1&
1p!
0q!
0N
0-
0M
1X
1O
1N
1-
0O
#870000
1!
1K
1L
0&
#880000
0!
0K
0L
1&
1q!
1M
0X
0N
0-
1O
#890000
1!
1K
1L
0&
#900000
0!
0K
0L
1&
0p!
1o!
0q!
1N
1-
1T
0O
0M
1X
0T
1O
0U
0W
0-
1U
1W
1V
0V
#910000
1!
1K
1L
0&
#920000
0!
0K
0L
1&
1q!
1M
0X
1-
#930000
1!
1K
1L
0&
#940000
0!
0K
0L
1&
1p!
0q!
0N
0-
0M
1X
1T
0O
1N
1-
0U
0W
0T
1O
1V
1U
1W
0V
#950000
1!
1K
1L
0&
#960000
0!
0K
0L
1&
1q!
1M
0X
0N
0-
1T
0O
0U
0W
1V
#970000
1!
1K
1L
0&
#980000
0!
0K
0L
1&
0p!
0o!
1m!
0n!
0q!
1Y
1N
1-
0T
1O
1Z
0V
1U
1W
0M
1X
0O
0W
0\
0[
0Z
1V
0-
1]
1\
1[
0]
#990000
1!
1K
1L
0&
#1000000
0!
0K
0L
1&
1q!
1M
0X
1-
#1010000
1!
1K
1L
0&
#1020000
0!
0K
0L
1&
1p!
0q!
0N
0-
0M
1X
1O
1N
1-
0O
#1030000
1!
1K
1L
0&
#1040000
0!
0K
0L
1&
1q!
0Y
1M
0X
0N
0-
1O
#1050000
1!
1K
1L
0&
#1060000
0!
0K
0L
1&
0p!
1o!
0q!
1N
1-
1T
0O
0M
1X
0T
1O
1W
0-
0W
#1070000
1!
1K
1L
0&
#1080000
0!
0K
0L
1&
1q!
1M
0X
1-
#1090000
1!
1K
1L
0&
#1100000
0!
0K
0L
1&
1p!
0q!
0N
0-
0M
1X
1T
0O
1N
1-
1W
0T
1O
0W
#1110000
1!
1K
1L
0&
#1120000
0!
0K
0L
1&
1q!
1M
0X
0N
0-
1T
0O
1W
#1130000
1!
1K
1L
0&
#1140000
0!
0K
0L
1&
0p!
0o!
1n!
0q!
1N
1-
0T
1O
0U
0W
0M
1X
0O
1U
1W
1Z
0V
0-
0Z
1V
0\
0[
1\
1[
1]
0]
#1150000
1!
1K
1L
0&
#1160000
0!
0K
0L
1&
1q!
1M
0X
1-
#1170000
1!
1K
1L
0&
#1180000
0!
0K
0L
1&
1p!
0q!
0N
0-
0M
1X
1O
1N
1-
0O
#1190000
1!
1K
1L
0&
#1200000
0!
0K
0L
1&
1q!
1M
0X
0N
0-
1O
#1210000
1!
1K
1L
0&
#1220000
0!
0K
0L
1&
0p!
1o!
0q!
1N
1-
1T
0O
0M
1X
0T
1O
0U
0W
0-
1U
1W
1Z
0V
0Z
1V
0\
0[
1\
1[
1]
0]
#1230000
1!
1K
1L
0&
#1240000
0!
0K
0L
1&
1q!
1M
0X
1-
#1250000
1!
1K
1L
0&
#1260000
0!
0K
0L
1&
1p!
0q!
0N
0-
0M
1X
1T
0O
1N
1-
0U
0W
0T
1O
1Z
0V
1U
1W
0\
0[
0Z
1V
1]
1\
1[
0]
#1270000
1!
1K
1L
0&
#1280000
1"
0!
16
0K
0L
1&
1q!
1M
0X
0N
0-
1T
0O
0U
0W
1Z
0V
0\
0[
1]
#1290000
1!
1K
1L
0&
#1300000
0!
0K
0L
1&
0p!
0o!
0m!
0n!
0q!
0l!
1k!
1Y
1N
1-
0T
1O
0Z
1V
1U
1W
0M
1X
1\
1[
1^
0]
0O
0W
0[
0V
0-
0^
1]
1.
0.
#1310000
1!
1K
1L
0&
#1320000
0!
0K
0L
1&
1q!
1M
0X
1-
#1330000
1!
1K
1L
0&
#1340000
0!
0K
0L
1&
1p!
0q!
0N
0-
0M
1X
1O
1N
1-
0O
#1350000
1!
1K
1L
0&
#1360000
0!
0K
0L
1&
1q!
0Y
1M
0X
0N
0-
1O
#1370000
1!
1K
1L
0&
#1380000
0!
0K
0L
1&
0p!
1o!
0q!
1N
1-
1T
0O
0M
1X
0T
1O
1W
0-
0W
#1390000
1!
1K
1L
0&
#1400000
0!
0K
0L
1&
1q!
1M
0X
1-
#1410000
1!
1K
1L
0&
#1420000
0!
0K
0L
1&
1p!
0q!
0N
0-
0M
1X
1T
0O
1N
1-
1W
0T
1O
0W
#1430000
1!
1K
1L
0&
#1440000
0!
0K
0L
1&
1q!
1M
0X
0N
0-
1T
0O
1W
#1450000
1!
1K
1L
0&
#1460000
0!
0K
0L
1&
0p!
0o!
1n!
0q!
1N
1-
0T
1O
0U
0W
0M
1X
0O
1U
1W
1V
0-
0V
#1470000
1!
1K
1L
0&
#1480000
0!
0K
0L
1&
1q!
1M
0X
1-
#1490000
1!
1K
1L
0&
#1500000
0!
0K
0L
1&
1p!
0q!
0N
0-
0M
1X
1O
1N
1-
0O
#1510000
1!
1K
1L
0&
#1520000
0!
0K
0L
1&
1q!
1M
0X
0N
0-
1O
#1530000
1!
1K
1L
0&
#1540000
0!
0K
0L
1&
0p!
1o!
0q!
1N
1-
1T
0O
0M
1X
0T
1O
0U
0W
0-
1U
1W
1V
0V
#1550000
1!
1K
1L
0&
#1560000
0!
0K
0L
1&
1q!
1M
0X
1-
#1570000
1!
1K
1L
0&
#1580000
0!
0K
0L
1&
1p!
0q!
0N
0-
0M
1X
1T
0O
1N
1-
0U
0W
0T
1O
1V
1U
1W
0V
#1590000
1!
1K
1L
0&
#1600000
0!
0K
0L
1&
1q!
1M
0X
0N
0-
1T
0O
0U
0W
1V
#1610000
1!
1K
1L
0&
#1620000
0!
0K
0L
1&
0p!
0o!
1m!
0n!
0q!
1Y
1N
1-
0T
1O
1Z
0V
1U
1W
0M
1X
0O
0W
1[
0Z
1V
0-
0[
#1630000
1!
1K
1L
0&
#1640000
0!
0K
0L
1&
1q!
1M
0X
1-
#1650000
1!
1K
1L
0&
#1660000
0!
0K
0L
1&
1p!
0q!
0N
0-
0M
1X
1O
1N
1-
0O
#1670000
1!
1K
1L
0&
#1680000
0!
0K
0L
1&
1q!
0Y
1M
0X
0N
0-
1O
#1690000
1!
1K
1L
0&
#1700000
0!
0K
0L
1&
0p!
1o!
0q!
1N
1-
1T
0O
0M
1X
0T
1O
1W
0-
0W
#1710000
1!
1K
1L
0&
#1720000
0!
0K
0L
1&
1q!
1M
0X
1-
#1730000
1!
1K
1L
0&
#1740000
0!
0K
0L
1&
1p!
0q!
0N
0-
0M
1X
1T
0O
1N
1-
1W
0T
1O
0W
#1750000
1!
1K
1L
0&
#1760000
0!
0K
0L
1&
1q!
1M
0X
0N
0-
1T
0O
1W
#1770000
1!
1K
1L
0&
#1780000
0!
0K
0L
1&
0p!
0o!
1n!
0q!
1N
1-
0T
1O
0U
0W
0M
1X
0O
1U
1W
1Z
0V
0-
0Z
1V
1[
0[
#1790000
1!
1K
1L
0&
#1800000
0!
0K
0L
1&
1q!
1M
0X
1-
#1810000
1!
1K
1L
0&
#1820000
0!
0K
0L
1&
1p!
0q!
0N
0-
0M
1X
1O
1N
1-
0O
#1830000
1!
1K
1L
0&
#1840000
0!
0K
0L
1&
1q!
1M
0X
0N
0-
1O
#1850000
1!
1K
1L
0&
#1860000
0!
0K
0L
1&
0p!
1o!
0q!
1N
1-
1T
0O
0M
1X
0T
1O
0U
0W
0-
1U
1W
1Z
0V
0Z
1V
1[
0[
#1870000
1!
1K
1L
0&
#1880000
0!
0K
0L
1&
1q!
1M
0X
1-
#1890000
1!
1K
1L
0&
#1900000
0!
0K
0L
1&
1p!
0q!
0N
0-
0M
1X
1T
0O
1N
1-
0U
0W
0T
1O
1Z
0V
1U
1W
1[
0Z
1V
0[
#1910000
1!
1K
1L
0&
#1920000
0!
0K
0L
1&
1q!
1M
0X
0N
0-
1T
0O
0U
0W
1Z
0V
1[
#1930000
1!
1K
1L
0&
#1940000
0!
0K
0L
1&
0p!
0o!
0m!
0n!
0q!
1l!
1Y
1N
1-
0T
1O
0Z
1V
1U
1W
0M
1X
0\
0[
0O
0W
1\
1[
0V
0-
1^
0]
0^
1]
1.
0.
#1950000
1!
1K
1L
0&
#1960000
0!
0K
0L
1&
1q!
1M
0X
1-
#1970000
1!
1K
1L
0&
#1980000
0!
0K
0L
1&
1p!
0q!
0N
0-
0M
1X
1O
1N
1-
0O
#1990000
1!
1K
1L
0&
#2000000
0!
0K
0L
1&
1q!
0Y
1M
0X
0N
0-
1O
#2010000
1!
1K
1L
0&
#2020000
0!
0K
0L
1&
0p!
1o!
0q!
1N
1-
1T
0O
0M
1X
0T
1O
1W
0-
0W
#2030000
1!
1K
1L
0&
#2040000
0!
0K
0L
1&
1q!
1M
0X
1-
#2050000
1!
1K
1L
0&
#2060000
0!
0K
0L
1&
1p!
0q!
0N
0-
0M
1X
1T
0O
1N
1-
1W
0T
1O
0W
#2070000
1!
1K
1L
0&
#2080000
0!
0K
0L
1&
1q!
1M
0X
0N
0-
1T
0O
1W
#2090000
1!
1K
1L
0&
#2100000
0!
0K
0L
1&
0p!
0o!
1n!
0q!
1N
1-
0T
1O
0U
0W
0M
1X
0O
1U
1W
1V
0-
0V
#2110000
1!
1K
1L
0&
#2120000
0!
0K
0L
1&
1q!
1M
0X
1-
#2130000
1!
1K
1L
0&
#2140000
0!
0K
0L
1&
1p!
0q!
0N
0-
0M
1X
1O
1N
1-
0O
#2150000
1!
1K
1L
0&
#2160000
0!
0K
0L
1&
1q!
1M
0X
0N
0-
1O
#2170000
1!
1K
1L
0&
#2180000
0!
0K
0L
1&
0p!
1o!
0q!
1N
1-
1T
0O
0M
1X
0T
1O
0U
0W
0-
1U
1W
1V
0V
#2190000
1!
1K
1L
0&
#2200000
0!
0K
0L
1&
1q!
1M
0X
1-
#2210000
1!
1K
1L
0&
#2220000
0!
0K
0L
1&
1p!
0q!
0N
0-
0M
1X
1T
0O
1N
1-
0U
0W
0T
1O
1V
1U
1W
0V
#2230000
1!
1K
1L
0&
#2240000
0!
0K
0L
1&
1q!
1M
0X
0N
0-
1T
0O
0U
0W
1V
#2250000
1!
1K
1L
0&
#2260000
0!
0K
0L
1&
0p!
0o!
1m!
0n!
0q!
1Y
1N
1-
0T
1O
1Z
0V
1U
1W
0M
1X
0O
0W
0\
0[
0Z
1V
0-
1^
0]
1\
1[
1.
0^
1]
0.
#2270000
1!
1K
1L
0&
#2280000
0!
0K
0L
1&
1q!
1M
0X
1-
#2290000
1!
1K
1L
0&
#2300000
0!
0K
0L
1&
1p!
0q!
0N
0-
0M
1X
1O
1N
1-
0O
#2310000
1!
1K
1L
0&
#2320000
0!
0K
0L
1&
1q!
0Y
1M
0X
0N
0-
1O
#2330000
1!
1K
1L
0&
#2340000
0!
0K
0L
1&
0p!
1o!
0q!
1N
1-
1T
0O
0M
1X
0T
1O
1W
0-
0W
#2350000
1!
1K
1L
0&
#2360000
0!
0K
0L
1&
1q!
1M
0X
1-
#2370000
1!
1K
1L
0&
#2380000
0!
0K
0L
1&
1p!
0q!
0N
0-
0M
1X
1T
0O
1N
1-
1W
0T
1O
0W
#2390000
1!
1K
1L
0&
#2400000
0!
0K
0L
1&
1q!
1M
0X
0N
0-
1T
0O
1W
#2410000
1!
1K
1L
0&
#2420000
0!
0K
0L
1&
0p!
0o!
1n!
0q!
1N
1-
0T
1O
0U
0W
0M
1X
0O
1U
1W
1Z
0V
0-
0Z
1V
0\
0[
1\
1[
1^
0]
0^
1]
1.
0.
#2430000
1!
1K
1L
0&
#2440000
0!
0K
0L
1&
1q!
1M
0X
1-
#2450000
1!
1K
1L
0&
#2460000
0!
0K
0L
1&
1p!
0q!
0N
0-
0M
1X
1O
1N
1-
0O
#2470000
1!
1K
1L
0&
#2480000
0!
0K
0L
1&
1q!
1M
0X
0N
0-
1O
#2490000
1!
1K
1L
0&
#2500000
0!
0K
0L
1&
0p!
1o!
0q!
1N
1-
1T
0O
0M
1X
0T
1O
0U
0W
0-
1U
1W
1Z
0V
0Z
1V
0\
0[
1\
1[
1^
0]
0^
1]
1.
0.
#2510000
1!
1K
1L
0&
#2520000
0!
0K
0L
1&
1q!
1M
0X
1-
#2530000
1!
1K
1L
0&
#2540000
0!
0K
0L
1&
1p!
0q!
0N
0-
0M
1X
1T
0O
1N
1-
0U
0W
0T
1O
1Z
0V
1U
1W
0\
0[
0Z
1V
1^
0]
1\
1[
1.
0^
1]
0.
#2550000
1!
1K
1L
0&
#2560000
0!
0K
0L
1&
1q!
1M
0X
0N
0-
1T
0O
0U
0W
1Z
0V
0\
0[
1^
0]
1.
#2570000
1!
1K
1L
0&
#2580000
0!
0K
0L
1&
1j!
0p!
0o!
0m!
0n!
0q!
0l!
0k!
0_
0.
1Y
1N
1-
0T
1O
0Z
1V
1U
1W
0M
1X
1\
1[
0^
1]
1`
0O
0W
0[
0V
0-
0]
1_
1.
0`
#2590000
1!
1K
1L
0&
#2600000
0!
0K
0L
1&
1q!
1M
0X
1-
#2610000
1!
1K
1L
0&
#2620000
0!
0K
0L
1&
1p!
0q!
0N
0-
0M
1X
1O
1N
1-
0O
#2630000
1!
1K
1L
0&
#2640000
0!
0K
0L
1&
1q!
0Y
1M
0X
0N
0-
1O
#2650000
1!
1K
1L
0&
#2660000
0!
0K
0L
1&
0p!
1o!
0q!
1N
1-
1T
0O
0M
1X
0T
1O
1W
0-
0W
#2670000
1!
1K
1L
0&
#2680000
0!
0K
0L
1&
1q!
1M
0X
1-
#2690000
1!
1K
1L
0&
#2700000
0!
0K
0L
1&
1p!
0q!
0N
0-
0M
1X
1T
0O
1N
1-
1W
0T
1O
0W
#2710000
1!
1K
1L
0&
#2720000
0!
0K
0L
1&
1q!
1M
0X
0N
0-
1T
0O
1W
#2730000
1!
1K
1L
0&
#2740000
0!
0K
0L
1&
0p!
0o!
1n!
0q!
1N
1-
0T
1O
0U
0W
0M
1X
0O
1U
1W
1V
0-
0V
#2750000
1!
1K
1L
0&
#2760000
0!
0K
0L
1&
1q!
1M
0X
1-
#2770000
1!
1K
1L
0&
#2780000
0!
0K
0L
1&
1p!
0q!
0N
0-
0M
1X
1O
1N
1-
0O
#2790000
1!
1K
1L
0&
#2800000
0!
0K
0L
1&
1q!
1M
0X
0N
0-
1O
#2810000
1!
1K
1L
0&
#2820000
0!
0K
0L
1&
0p!
1o!
0q!
1N
1-
1T
0O
0M
1X
0T
1O
0U
0W
0-
1U
1W
1V
0V
#2830000
1!
1K
1L
0&
#2840000
0!
0K
0L
1&
1q!
1M
0X
1-
#2850000
1!
1K
1L
0&
#2860000
0!
0K
0L
1&
1p!
0q!
0N
0-
0M
1X
1T
0O
1N
1-
0U
0W
0T
1O
1V
1U
1W
0V
#2870000
1!
1K
1L
0&
#2880000
0!
0K
0L
1&
1q!
1M
0X
0N
0-
1T
0O
0U
0W
1V
#2890000
1!
1K
1L
0&
#2900000
0!
0K
0L
1&
0p!
0o!
1m!
0n!
0q!
1Y
1N
1-
0T
1O
1Z
0V
1U
1W
0M
1X
0O
0W
1[
0Z
1V
0-
0[
#2910000
1!
1K
1L
0&
#2920000
0!
0K
0L
1&
1q!
1M
0X
1-
#2930000
1!
1K
1L
0&
#2940000
0!
0K
0L
1&
1p!
0q!
0N
0-
0M
1X
1O
1N
1-
0O
#2950000
1!
1K
1L
0&
#2960000
0!
0K
0L
1&
1q!
0Y
1M
0X
0N
0-
1O
#2970000
1!
1K
1L
0&
#2980000
0!
0K
0L
1&
0p!
1o!
0q!
1N
1-
1T
0O
0M
1X
0T
1O
1W
0-
0W
#2990000
1!
1K
1L
0&
#3000000
0!
0K
0L
1&
1q!
1M
0X
1-
#3010000
1!
1K
1L
0&
